@startuml
' https://plantuml.com/component-diagram
' https://www.tutorialrepublic.com/html-reference/html-color-picker.php
' https://confluence.elkjop.com/display/NGR/Monitoring+and+Alerting

!theme hacker
skinparam backgroundColor #3C3F41
'skinparam linetype polyline
'skinparam linetype ortho
skinparam defaultTextAlignment center
'skinparam RectangleFontColor #A2CE50
left to right direction

!define pink B07FA6
!define lightpink d0b2ca
!define melba F5C37C
!define green A2CE50
!define blue 82AFC1
!define lightblue b4cfda
!define lightblue b4cfda

artifact "**Opsgenie**" as Opsgenie

File "<<Dashboard>>\n**Instana**" as Instana
File "<<Dashboard>>\n**Splunk**" as Splunk
rectangle "Kubernetes" as k {
    File "<<Dashboard>>\n**Prometheus**" as Prometheus
    File "<<Dashboard>>\n**Grafana**" as Grafana
}
File "<<Dashboard>>\n**Pingdom**" as Pingdom

card "<color:#B07FA6>Azure" as Azure #transparent {
    card "<<Dashboard>>\n**SQL database**" as db
    card "<<Dashboard>>\n**Load balancer**" as lb
    card "<<Dashboard>>\n**Storage account**" as sa
    card "<<Dashboard>>\n**Azure Cache for Redis**" as azfr

    rectangle Kubernetes {
        storage "**Apollo**" as Apollo
        storage "**Single Page Application**" as spa
        storage "**SAP Commerce**\n(Cronjob + Storefront)" as hybris
        storage Redis
        File "<<Dashboard>>\n**TeamCity**\n(login test executions)" as tc
        storage "**CoreMedia**\n(Studio, Database, Elasticsearch, Solr)" as cms
    }
}

db ~[#pink]down~ hybris : "<color:#pink>associated"
db ~[#pink]down~ cms : "<color:#pink>associated"
azfr ~[#pink]down~ Redis : "<color:#pink>associated"

spa -[#melba]down--> Splunk : "<color:#melba>transfer **logs**"
hybris -[#melba]down--> Splunk : "<color:#melba>transfer **logs**"
Apollo -[#melba]down--> Splunk : "<color:#melba>transfer **logs**"
tc -[#blue]> Splunk : "<color:#blue>transfer **logs**"
cms -[#melba]> Splunk : "<color:#melba>transfer **logs**"
spa -[#melba]down--> Instana : "<color:#melba>transfer **data**"

Prometheus -[#blue]> Grafana : "<color:#blue>transfer **metrics**"
Kubernetes -> Prometheus : "<color:#green>transfer **metrics** of all pods"
Azure .[#pink].> Grafana : "<color:#pink>transfer **metrics**\n**<color:#lightpink><< UNDER CONSTRUCTION >>**"

Splunk -[#blue]down-> Opsgenie : "<color:#blue>transfer **alerts**"
Instana -[#blue]down-> Opsgenie : "<color:#blue>transfer **alerts**"
Grafana -[#blue]down-> Opsgenie : "<color:#blue>transfer **alerts**"
Pingdom -[#blue]down-> Opsgenie : "<color:#blue>transfer **alerts**"
Prometheus -[#blue]down--> Opsgenie : "<color:#blue>transfer **alerts**"
Azure -[#pink]right-> Opsgenie : "<color:#pink>transfer **alerts**"

Instana -[#blue]> Grafana : "<color:#blue>transfer **metrics**"
Splunk .[#blue]> Grafana : "<color:#blue>transfer **metrics**\n**<color:#lightblue><< UNDER CONSTRUCTION >>**"

Pingdom .[#blue]> Prometheus : "<color:#blue>transfer **metrics**\n**<color:#lightblue><< UNDER CONSTRUCTION >>**"

@enduml