@startuml
!theme hacker
skinparam backgroundColor #3C3F41
skinparam defaultTextAlignment center
left to right direction
skinparam InterfaceBorderColor #0457D1
skinparam InterfaceBackgroundColor #1F7AF5

cloud "<img:include/prometheus.png{scale=0.3}>\n\n<<non-prod>>\n<<cms>>\n<color:#E9512B>**Prometheus**\n<img:include/bad2.png{scale=0.15}>" as PrometheusNP
cloud "<img:include/prometheus.png{scale=0.3}>\n\n<<prod>>\n<color:#E9512B>**Prometheus**"     as PrometheusP
cloud "<img:include/opsgenie.png{scale=0.3}>\n\n<color:#1F7AF5>**Opsgenie**"                   as Opsgenie {
    interface "<<non-prod>>\n<<cms>>\n<color:#1F7AF5>**Integration**\n<img:include/bad2.png{scale=0.15}>"                                   as NP
    interface "<<prod>>\n<color:#1F7AF5>**Integration**"                                       as P
}

PrometheusNP .[#E9512B].>> NP : **alerts**
PrometheusP -[#E9512B]->> P  : **alerts**


@enduml
