@startuml
!theme hacker
skinparam backgroundColor #3C3F41
skinparam defaultTextAlignment center
left to right direction
skinparam NoteBackgroundColor #3C3F41

cloud "<<website>>\n\n<img:include/angular.png{scale=0.3}>\n\n<color:#C4002B>**Single Page Application**"                   as SPA
cloud "<<RESTful API>>\n\n<img:include/instana.png{scale=0.3}>\n\n<color:#0DB4B3>**Instana**"                                   as Instana
cloud "<<endpoint>>\n\n<img:include/docker.png{scale=0.3}>\n\n<color:#0DB4B3>**Instana<color:#2496ED> Custom-Events Exporter**" as InstanaExporter
cloud "<<data source>>\n\n<img:include/prometheus.png{scale=0.3}>\n\n<color:#E9512B>**Prometheus**"                             as Prometheus
cloud "<<dashboard>>\n\n<img:include/grafana.png{scale=0.3}>\n\n<color:#FDDC04>**Grafana**"                                     as Grafana
cloud "<<dashboard>>\n\n<img:include/opsgenie.png{scale=0.3}>\n\n<color:#1F7AF5>**Opsgenie**"                                   as Opsgenie

SPA -[#C4002B]->> Instana                  : **send custom events**
Instana <<-[#2496ED]right- InstanaExporter : **request data**
InstanaExporter <<-[#E9512B]- Prometheus   : **scrape**
Prometheus <<-[#FDDC04]- Grafana           : **query metrics**
Grafana -[#FDDC04]left->> Opsgenie         : **alert about custom events**

Instana ..[#0DB4B3].>> Opsgenie            : **alert about custom events**
note top of link
  <color:#0DB4B3>**not implemented**
end note


@enduml
