@startuml
' https://plantuml.com/en/sequence-diagram

!theme hacker
skinparam backgroundColor #3C3F41
hide footbox

actor "User" as User
participant "<img:include72/elkjoep.png{scale=0.5}>\nElkjøp Website" as Website
participant "<img:include72/sap3.png{scale=0.5}> <img:include72/angular.png{scale=0.5}> <img:include72/apollo.png{scale=0.5}> <img:include72/coremedia.png{scale=0.5}>\nSAP Commerce\nSingle Page Application\nApollo\nCoreMedia" as SC
participant "<img:include72/splunk.png{scale=0.5}> <img:include72/instana2.png{scale=0.5}>\nSplunk\nInstana" as Splunk
participant "<img:include72/opsgenie.png{scale=0.5}>\nOpsgenie" as Opsgenie
actor "On-Call" as OnCall

User -> Website : browses
activate Website
Website -> SC : requests
activate SC
SC -> SC : produces error
SC -> SC : logs error
SC ->> Splunk: transfers logs
activate Splunk
Splunk -> Splunk : stores logs as events
SC <<-- Splunk
Website <-- SC
deactivate SC
User <- Website
deactivate Website
...
Splunk -> Splunk : is scheduled
Splunk -> Splunk : searches for events
Splunk -> Splunk : creates alert
Splunk -> Opsgenie : transfers alert
deactivate Splunk
activate Opsgenie
Opsgenie -> Opsgenie : creates alert
Opsgenie -> OnCall : notifies\n(""Email"", ""SMS"", ""Voice"", ""App"")
activate OnCall
Opsgenie <- OnCall : acknowledges
deactivate OnCall
deactivate Opsgenie

@enduml
